…
``` r
# Extraer indicadores únicos
indicadores <- peru_df_inicial$INDICATOR %>%
  unique() %>%
  as_tibble()
print(indicadores) # Descomenta para ver la lista de indicadores
```

    ## # A tibble: 41 × 1
    ##    value                                                                        
    ##    <chr>                                                                        
    ##  1 Reserves minus liabilities constituting foreign authorities' reserves (LCFAR…
    ##  2 Secondary income, Credit/Revenue                                             
    ##  3 Financial derivatives (other than reserves) and employee stock options, Net …
    ##  4 Total capital account debit/expenditure, Debit/Expenditure                   
    ##  5 Goods, Credit/Revenue                                                        
    ##  6 Financial account balance (assets less liabilities), Net (net acquisition of…
    ##  7 Services balance (credit less debit), Net (credits less debits)              
    ##  8 Financial derivatives (other than reserves) and employee stock options, Net …
    ##  9 Services, Credit/Revenue                                                     
    ## 10 International investment position, Assets, Adjusted using IMF accounting rec…
    ## # ℹ 31 more rows
…
